{
  "products": [
    {
      "id": 0,
      "name": "Product Number 0",
      "image": "//imagens.pontofrio.com.br/Control/ArquivoExibir.aspx?IdArquivo=6670538",
      "oldPrice": 383,
      "price": 371,
      "description": "Product long description number 0 just to make more than one like of text.",
      "installments": { "count": 10, "value": 37.1 }
    },
    {
      "id": 1,
      "name": "Product Number 1",
      "image": "//imagens.pontofrio.com.br/Control/ArquivoExibir.aspx?IdArquivo=6829158",
      "oldPrice": 143,
      "price": 111,
      "description": "Product long description number 1 just to make more than one like of text.",
      "installments": { "count": 10, "value": 11.1 }
    },
    {
      "id": 2,
      "name": "Product Number 2",
      "image": "//imagens.pontofrio.com.br/Control/ArquivoExibir.aspx?IdArquivo=6124117",
      "oldPrice": 243,
      "price": 227,
      "description": "Product long description number 2 just to make more than one like of text.",
      "installments": { "count": 10, "value": 22.7 }
    },
    {
      "id": 3,
      "name": "Product Number 3",
      "image": "//imagens.pontofrio.com.br/Control/ArquivoExibir.aspx?IdArquivo=6624363",
      "oldPrice": 249,
      "price": 211,
      "description": "Product long description number 3 just to make more than one like of text.",
      "installments": { "count": 10, "value": 21.1 }
    },
    {
      "id": 4,
      "name": "Product Number 4",
      "image": "//imagens.pontofrio.com.br/Control/ArquivoExibir.aspx?IdArquivo=6624363",
      "oldPrice": 411,
      "price": 391,
      "description": "Product long description number 4 just to make more than one like of text.",
      "installments": { "count": 10, "value": 39.1 }
    },
    {
      "id": 5,
      "name": "Product Number 5",
      "image": "//imagens.pontofrio.com.br/Control/ArquivoExibir.aspx?IdArquivo=6670538",
      "oldPrice": 121,
      "price": 94,
      "description": "Product long description number 5 just to make more than one like of text.",
      "installments": { "count": 10, "value": 9.4 }
    },
    {
      "id": 6,
      "name": "Product Number 6",
      "image": "//imagens.pontofrio.com.br/Control/ArquivoExibir.aspx?IdArquivo=6829307",
      "oldPrice": 170,
      "price": 147,
      "description": "Product long description number 6 just to make more than one like of text.",
      "installments": { "count": 10, "value": 14.7 }
    },
    {
      "id": 7,
      "name": "Product Number 7",
      "image": "//imagens.pontofrio.com.br/Control/ArquivoExibir.aspx?IdArquivo=6747399",
      "oldPrice": 405,
      "price": 356,
      "description": "Product long description number 7 just to make more than one like of text.",
      "installments": { "count": 10, "value": 35.6 }
    }
  ],
  "nextPage": "frontend-intern-challenge-api.iurykrieger.now.sh/products?page=2"
}
